module jobproject

go 1.19

require (
	github.com/jackc/pgconn v1.13.0
	github.com/joho/godotenv v1.4.0
	github.com/julienschmidt/httprouter v1.3.0
	github.com/justinas/alice v1.2.0
	github.com/throttled/throttled/v2 v2.9.1
	gitlab.com/gojobpr/logger v0.0.1
	gitlab.com/gojobpr/persistance v0.0.2
	golang.org/x/crypto v0.0.0-20220829220503-c86fa9a7ed90
	gorm.io/gorm v1.23.9
)

require (
	github.com/hashicorp/golang-lru v0.5.4 // indirect
	github.com/jackc/chunkreader/v2 v2.0.1 // indirect
	github.com/jackc/pgio v1.0.0 // indirect
	github.com/jackc/pgpassfile v1.0.0 // indirect
	github.com/jackc/pgproto3/v2 v2.3.1 // indirect
	github.com/jackc/pgservicefile v0.0.0-20200714003250-2b9c44734f2b // indirect
	github.com/jackc/pgtype v1.12.0 // indirect
	github.com/jackc/pgx/v4 v4.17.2 // indirect
	github.com/jinzhu/inflection v1.0.0 // indirect
	github.com/jinzhu/now v1.1.4 // indirect
	github.com/mattn/go-colorable v0.1.12 // indirect
	github.com/mattn/go-isatty v0.0.14 // indirect
	github.com/rs/zerolog v1.28.0 // indirect
	golang.org/x/sys v0.0.0-20210927094055-39ccf1dd6fa6 // indirect
	golang.org/x/text v0.3.7 // indirect
	gorm.io/driver/postgres v1.3.10 // indirect
)
